{
  "cols": [
        {"id":"","label":"Topping","pattern":"","type":"string"},
        {"id":"","label":"Temperatur","pattern":"","type":"number"}
      ],
  "rows": [
   <!-- BLOCKBEGIN[list]-->{"c":[{"v":"<@@H[connect_dt]@@>","f":null},{"v":<@@H[temp]@@>,"f":null}]},<!-- BLOCKEND[list]-->
   {"c":[{"v":"<@@H[connect_dt_0]@@>","f":null},{"v":<@@H[temp_0]@@>,"f":null}]}
      ],
  "test": [
        {"node_seq":"<@@H[node_seq_0]@@>","node_name":"<@@H[node_name_0]@@>","co2":"<@@H[co2_0]@@>","humid":"<@@H[humid_0]@@>","lpg":"<@@H[lpg_0]@@>","voc":"<@@H[voc_0]@@>","cds":"<@@H[cds_0]@@>","uv":"<@@H[uv_0]@@>","dust":"<@@H[dust_0]@@>","ozone":"<@@H[ozone_0]@@>","connect_dt":"<@@H[connect_dt_0]@@>","communication_type":"<@@H[communication_type_0]@@>"}
      ]
}


